…
    tidy_fit = map(fit, ~ tidy(
      .x,
      conf.int = TRUE,
      exponentiate = TRUE
    ))
  ) |>
  unnest(tidy_fit) |>
  filter(term == "victim_sexMale") |>
  select(
    city_state, estimate, conf.low, conf.high
  )
results_df
```

    ## # A tibble: 47 × 4
    ## # Groups:   city_state [47]
    ##    city_state      estimate conf.low conf.high
    ##    <chr>              <dbl>    <dbl>     <dbl>
    ##  1 Albuquerque, NM    1.77     0.825     3.76 
    ##  2 Atlanta, GA        1.00     0.680     1.46 
    ##  3 Baltimore, MD      0.426    0.324     0.558
    ##  4 Baton Rouge, LA    0.381    0.204     0.684
    ##  5 Birmingham, AL     0.870    0.571     1.31 
    ##  6 Boston, MA         0.667    0.351     1.26 
    ##  7 Buffalo, NY        0.521    0.288     0.936
    ##  8 Charlotte, NC      0.884    0.551     1.39 
    ##  9 Chicago, IL        0.410    0.336     0.501
    ## 10 Cincinnati, OH     0.400    0.231     0.667
    ## # ℹ 37 more rows
…
``` r
set.seed(100)  

bootstrap_results =
  tibble(i = 1:5000) |>
  mutate(
    boot_sample = map(i, ~ sample_n(weather_df, size = nrow(weather_df), replace = TRUE)),
    boot_est = map(boot_sample, bootstrap_est)
  ) |>
  select(-boot_sample) |>
  unnest(boot_est)
bootstrap_results
```

    ## # A tibble: 5,000 × 3
    ##        i    r2 beta_ratio
    ##    <int> <dbl>      <dbl>
    ##  1     1 0.945      -201.
    ##  2     2 0.938      -140.
    ##  3     3 0.939      -254.
    ##  4     4 0.945      -188.
    ##  5     5 0.939      -151.
    ##  6     6 0.943      -147.
    ##  7     7 0.943      -162.
    ##  8     8 0.936      -248.
    ##  9     9 0.943      -136.
    ## 10    10 0.947      -187.
    ## # ℹ 4,990 more rows
…
